Experiment name,Replicate,Reference sequence,Ligand,Sample with SHAPE reagent,Sample without SHAPE reagent,Denatured sample
TPP_riboswitch,1,TPP,None,B-5,A-1,U-13
TPP_riboswitch,2,TPP,None,B-6,A-2,U-14
TPP_riboswitch,3,TPP,None,B-7,A-3,U-15
TPP_riboswitch,4,TPP,None,B-8,A-4,U-15
TPP_riboswitch,1,TPP,TPP,C-9,A-1,U-13
TPP_riboswitch,2,TPP,TPP,C-10,A-2,U-14
TPP_riboswitch,3,TPP,TPP,C-11,A-3,U-15
TPP_riboswitch,4,TPP,TPP,C-12,A-4,U-15
